{"links":{"self":"https://dpul.princeton.edu/catalog.json?q=cats\u0026search_field=all_fields\u0026utf8=%E2%9C%93","next":"https://dpul.princeton.edu/catalog.json?page=2\u0026q=cats\u0026search_field=all_fields\u0026utf8=%E2%9C%93","last":"https://dpul.princeton.edu/catalog.json?page=16\u0026q=cats\u0026search_field=all_fields\u0026utf8=%E2%9C%93"},"meta":{"pages":{"current_page":1,"next_page":2,"prev_page":null,"total_pages":16,"limit_value":10,"offset_value":0,"total_count":158,"first_page?":true,"last_page?":false}},"data":[{"id":"a558b450fa12cb8eab4a332bc3b235a6","type":null,"attributes":{"readonly_collections_ssim":{"id":"https://dpul.princeton.edu/catalog/cj82kb879#readonly_collections_ssim","type":"document_value","attributes":{"value":"\u003cul\u003e\u003cli dir=\"ltr\"\u003eTreasures of the Graphic Arts Collection\u003c/li\u003e\u003c/ul\u003e","label":"Collections"}},"readonly_creator_ssim":{"id":"https://dpul.princeton.edu/catalog/cj82kb879#readonly_creator_ssim","type":"document_value","attributes":{"value":"Isoda Koryusai, active 1765-ca. 1785","label":"Creator"}},"readonly_title_ssim":{"id":"https://dpul.princeton.edu/catalog/cj82kb879#readonly_title_ssim","type":"document_value","attributes":{"value":"[Cat near fishbowl].","label":"Title"}},"readonly_publisher_ssim":{"id":"https://dpul.princeton.edu/catalog/cj82kb879#readonly_publisher_ssim","type":"document_value","attributes":{"value":"n.d.","label":"Publisher"}},"readonly_format_ssim":{"id":"https://dpul.princeton.edu/catalog/cj82kb879#readonly_format_ssim","type":"document_value","attributes":{"value":"Visual material","label":"Format"}},"readonly_collections_tesim":{"id":"https://dpul.princeton.edu/catalog/cj82kb879#readonly_collections_tesim","type":"document_value","attributes":{"value":"Treasures of the Graphic Arts Collection","label":"Collections"}}},"links":{"self":"https://dpul.princeton.edu/catalog/cj82kb879"}},{"id":"3b885871e4a6f8bcf33068518b3b0695","type":null,"attributes":{"readonly_collections_ssim":{"id":"https://dpul.princeton.edu/catalog/3197xq60b#readonly_collections_ssim","type":"document_value","attributes":{"value":"\u003cul\u003e\u003cli dir=\"ltr\"\u003eTreasures of the Graphic Arts Collection\u003c/li\u003e\u003c/ul\u003e","label":"Collections"}},"readonly_creator_ssim":{"id":"https://dpul.princeton.edu/catalog/3197xq60b#readonly_creator_ssim","type":"document_value","attributes":{"value":"Homar, Lorenzo, 1913-2004","label":"Creator"}},"readonly_title_ssim":{"id":"https://dpul.princeton.edu/catalog/3197xq60b#readonly_title_ssim","type":"document_value","attributes":{"value":"Los animales musicos","label":"Title"}},"readonly_publisher_ssim":{"id":"https://dpul.princeton.edu/catalog/3197xq60b#readonly_publisher_ssim","type":"document_value","attributes":{"value":"1968.","label":"Publisher"}},"readonly_format_ssim":{"id":"https://dpul.princeton.edu/catalog/3197xq60b#readonly_format_ssim","type":"document_value","attributes":{"value":"Visual material","label":"Format"}},"readonly_collections_tesim":{"id":"https://dpul.princeton.edu/catalog/3197xq60b#readonly_collections_tesim","type":"document_value","attributes":{"value":"Treasures of the Graphic Arts Collection","label":"Collections"}}},"links":{"self":"https://dpul.princeton.edu/catalog/3197xq60b"}},{"id":"1f969064cda78a5265c7a4517d445759","type":null,"attributes":{"readonly_collections_ssim":{"id":"https://dpul.princeton.edu/catalog/08612r291#readonly_collections_ssim","type":"document_value","attributes":{"value":"\u003cul\u003e\u003cli dir=\"ltr\"\u003e\u003ca href=\"/cotsen\"\u003eTreasures of the Cotsen Collection\u003c/a\u003e\u003c/li\u003e\u003c/ul\u003e","label":"Collections"}},"readonly_title_ssim":{"id":"https://dpul.princeton.edu/catalog/08612r291#readonly_title_ssim","type":"document_value","attributes":{"value":"新版猫の逰女屋 / 近園扳. and Shinban neko no yujoya / Kinen","label":"Title"}},"readonly_publisher_ssim":{"id":"https://dpul.princeton.edu/catalog/08612r291#readonly_publisher_ssim","type":"document_value","attributes":{"value":"[Tōkyō] : [Hasegawa Sonokichi], Meiji 22 [1889], [Tōkyō] : [長谷川園吉], 明治22 [1889], Nihonbashi [Tōkyō] : Hasegawa Sonokichi, and 日本橋 [Tōkyō] : 長谷川園吉","label":"Publisher"}},"readonly_format_ssim":{"id":"https://dpul.princeton.edu/catalog/08612r291#readonly_format_ssim","type":"document_value","attributes":{"value":"Visual material","label":"Format"}},"readonly_collections_tesim":{"id":"https://dpul.princeton.edu/catalog/08612r291#readonly_collections_tesim","type":"document_value","attributes":{"value":"Treasures of the Cotsen Collection","label":"Collections"}}},"links":{"self":"https://dpul.princeton.edu/catalog/08612r291"}},{"id":"9409dc428d81cd65879655afc359c46b","type":null,"attributes":{"readonly_collections_ssim":{"id":"https://dpul.princeton.edu/catalog/z029p8256#readonly_collections_ssim","type":"document_value","attributes":{"value":"\u003cul\u003e\u003cli dir=\"ltr\"\u003eTreasures of the Graphic Arts Collection\u003c/li\u003e\u003c/ul\u003e","label":"Collections"}},"readonly_creator_ssim":{"id":"https://dpul.princeton.edu/catalog/z029p8256#readonly_creator_ssim","type":"document_value","attributes":{"value":"Nast, Thomas, 1840-1902","label":"Creator"}},"readonly_title_ssim":{"id":"https://dpul.princeton.edu/catalog/z029p8256#readonly_title_ssim","type":"document_value","attributes":{"value":"No -- no more chestnuts for me.","label":"Title"}},"readonly_publisher_ssim":{"id":"https://dpul.princeton.edu/catalog/z029p8256#readonly_publisher_ssim","type":"document_value","attributes":{"value":"New York :  [s.n.], 1877/01/06.","label":"Publisher"}},"readonly_format_ssim":{"id":"https://dpul.princeton.edu/catalog/z029p8256#readonly_format_ssim","type":"document_value","attributes":{"value":"Visual material","label":"Format"}},"readonly_collections_tesim":{"id":"https://dpul.princeton.edu/catalog/z029p8256#readonly_collections_tesim","type":"document_value","attributes":{"value":"Treasures of the Graphic Arts Collection","label":"Collections"}}},"links":{"self":"https://dpul.princeton.edu/catalog/z029p8256"}},{"id":"ac7f1a2ba958e9bde1e5de573b73343c","type":null,"attributes":{"readonly_collections_ssim":{"id":"https://dpul.princeton.edu/catalog/41687r57r#readonly_collections_ssim","type":"document_value","attributes":{"value":"\u003cul\u003e\u003cli dir=\"ltr\"\u003ePUDL0130\u003c/li\u003e\u003cli dir=\"ltr\"\u003eTreasures of the Graphic Arts Collection\u003c/li\u003e\u003c/ul\u003e","label":"Collections"}},"readonly_creator_ssim":{"id":"https://dpul.princeton.edu/catalog/41687r57r#readonly_creator_ssim","type":"document_value","attributes":{"value":"Rowlandson, Thomas, 1756-1827","label":"Creator"}},"readonly_title_ssim":{"id":"https://dpul.princeton.edu/catalog/41687r57r#readonly_title_ssim","type":"document_value","attributes":{"value":"Domestic shaving","label":"Title"}},"readonly_publisher_ssim":{"id":"https://dpul.princeton.edu/catalog/41687r57r#readonly_publisher_ssim","type":"document_value","attributes":{"value":"London : [s.n.], 1786/08/21.","label":"Publisher"}},"readonly_format_ssim":{"id":"https://dpul.princeton.edu/catalog/41687r57r#readonly_format_ssim","type":"document_value","attributes":{"value":"Visual material","label":"Format"}},"readonly_collections_tesim":{"id":"https://dpul.princeton.edu/catalog/41687r57r#readonly_collections_tesim","type":"document_value","attributes":{"value":"PUDL0130 and Treasures of the Graphic Arts Collection","label":"Collections"}}},"links":{"self":"https://dpul.princeton.edu/catalog/41687r57r"}},{"id":"dc901bcbefa3031b2f436b475753adb6","type":null,"attributes":{"readonly_collections_ssim":{"id":"https://dpul.princeton.edu/catalog/9593v323z#readonly_collections_ssim","type":"document_value","attributes":{"value":"\u003cul\u003e\u003cli dir=\"ltr\"\u003ePUDL0130\u003c/li\u003e\u003cli dir=\"ltr\"\u003eTreasures of the Graphic Arts Collection\u003c/li\u003e\u003c/ul\u003e","label":"Collections"}},"readonly_creator_ssim":{"id":"https://dpul.princeton.edu/catalog/9593v323z#readonly_creator_ssim","type":"document_value","attributes":{"value":"Rowlandson, Thomas, 1756-1827","label":"Creator"}},"readonly_title_ssim":{"id":"https://dpul.princeton.edu/catalog/9593v323z#readonly_title_ssim","type":"document_value","attributes":{"value":"The chamber of genius","label":"Title"}},"readonly_publisher_ssim":{"id":"https://dpul.princeton.edu/catalog/9593v323z#readonly_publisher_ssim","type":"document_value","attributes":{"value":"[Paris] : [s.n.], n.d.","label":"Publisher"}},"readonly_format_ssim":{"id":"https://dpul.princeton.edu/catalog/9593v323z#readonly_format_ssim","type":"document_value","attributes":{"value":"Visual material","label":"Format"}},"readonly_collections_tesim":{"id":"https://dpul.princeton.edu/catalog/9593v323z#readonly_collections_tesim","type":"document_value","attributes":{"value":"PUDL0130 and Treasures of the Graphic Arts Collection","label":"Collections"}}},"links":{"self":"https://dpul.princeton.edu/catalog/9593v323z"}},{"id":"5603adc3fd98f288f2a10335c528ab95","type":null,"attributes":{"readonly_collections_ssim":{"id":"https://dpul.princeton.edu/catalog/0b6f5619-38de-4621-a275-52f60af7588c#readonly_collections_ssim","type":"document_value","attributes":{"value":"\u003cul\u003e\u003cli dir=\"ltr\"\u003ePU Jazz Ensembles\u003c/li\u003e\u003cli dir=\"ltr\"\u003e\u003ca href=\"/performances\"\u003ePerformance Audio Archive Collection\u003c/a\u003e\u003c/li\u003e\u003cli dir=\"ltr\"\u003e\u003ca href=\"/music\"\u003eMusic and Performing Arts Collections at Princeton\u003c/a\u003e\u003c/li\u003e\u003c/ul\u003e","label":"Collections"}},"readonly_creator_ssim":{"id":"https://dpul.princeton.edu/catalog/0b6f5619-38de-4621-a275-52f60af7588c#readonly_creator_ssim","type":"document_value","attributes":{"value":"Princeton University. Concert Jazz Ensemble","label":"Creator"}},"readonly_title_ssim":{"id":"https://dpul.princeton.edu/catalog/0b6f5619-38de-4621-a275-52f60af7588c#readonly_title_ssim","type":"document_value","attributes":{"value":"Concert, 2013, October 12","label":"Title"}},"readonly_publisher_ssim":{"id":"https://dpul.princeton.edu/catalog/0b6f5619-38de-4621-a275-52f60af7588c#readonly_publisher_ssim","type":"document_value","attributes":{"value":"Princeton, NJ. : Princeton University, Dept. of Music, [2013].","label":"Publisher"}},"readonly_format_ssim":{"id":"https://dpul.princeton.edu/catalog/0b6f5619-38de-4621-a275-52f60af7588c#readonly_format_ssim","type":"document_value","attributes":{"value":"Audio","label":"Format"}},"readonly_collections_tesim":{"id":"https://dpul.princeton.edu/catalog/0b6f5619-38de-4621-a275-52f60af7588c#readonly_collections_tesim","type":"document_value","attributes":{"value":"PU Jazz Ensembles, Performance Audio Archive Collection, and Music and Performing Arts Collections at Princeton","label":"Collections"}}},"links":{"self":"https://dpul.princeton.edu/catalog/0b6f5619-38de-4621-a275-52f60af7588c"}},{"id":"7140963c3705a22fe757874ae7c0c3d2","type":null,"attributes":{"readonly_collections_ssim":{"id":"https://dpul.princeton.edu/catalog/r494vt29r#readonly_collections_ssim","type":"document_value","attributes":{"value":"\u003cul\u003e\u003cli dir=\"ltr\"\u003ePUDL0130\u003c/li\u003e\u003cli dir=\"ltr\"\u003eTreasures of the Graphic Arts Collection\u003c/li\u003e\u003c/ul\u003e","label":"Collections"}},"readonly_creator_ssim":{"id":"https://dpul.princeton.edu/catalog/r494vt29r#readonly_creator_ssim","type":"document_value","attributes":{"value":"Rowlandson, Thomas, 1756-1827","label":"Creator"}},"readonly_title_ssim":{"id":"https://dpul.princeton.edu/catalog/r494vt29r#readonly_title_ssim","type":"document_value","attributes":{"value":"The chamber of genius","label":"Title"}},"readonly_publisher_ssim":{"id":"https://dpul.princeton.edu/catalog/r494vt29r#readonly_publisher_ssim","type":"document_value","attributes":{"value":"[London] : [s.n.], 1812/04/02.","label":"Publisher"}},"readonly_format_ssim":{"id":"https://dpul.princeton.edu/catalog/r494vt29r#readonly_format_ssim","type":"document_value","attributes":{"value":"Visual material","label":"Format"}},"readonly_collections_tesim":{"id":"https://dpul.princeton.edu/catalog/r494vt29r#readonly_collections_tesim","type":"document_value","attributes":{"value":"PUDL0130 and Treasures of the Graphic Arts Collection","label":"Collections"}}},"links":{"self":"https://dpul.princeton.edu/catalog/r494vt29r"}},{"id":"0610f25df0878e90967b1c0f20d32afd","type":null,"attributes":{"readonly_collections_ssim":{"id":"https://dpul.princeton.edu/catalog/9p290j43s#readonly_collections_ssim","type":"document_value","attributes":{"value":"\u003cul\u003e\u003cli dir=\"ltr\"\u003ePUDL0130\u003c/li\u003e\u003cli dir=\"ltr\"\u003eTreasures of the Graphic Arts Collection\u003c/li\u003e\u003c/ul\u003e","label":"Collections"}},"readonly_creator_ssim":{"id":"https://dpul.princeton.edu/catalog/9p290j43s#readonly_creator_ssim","type":"document_value","attributes":{"value":"Rowlandson, Thomas, 1756-1827","label":"Creator"}},"readonly_title_ssim":{"id":"https://dpul.princeton.edu/catalog/9p290j43s#readonly_title_ssim","type":"document_value","attributes":{"value":"[Sly boots].","label":"Title"}},"readonly_publisher_ssim":{"id":"https://dpul.princeton.edu/catalog/9p290j43s#readonly_publisher_ssim","type":"document_value","attributes":{"value":"[s.l.] : [s.n.], n.d.","label":"Publisher"}},"readonly_format_ssim":{"id":"https://dpul.princeton.edu/catalog/9p290j43s#readonly_format_ssim","type":"document_value","attributes":{"value":"Visual material","label":"Format"}},"readonly_collections_tesim":{"id":"https://dpul.princeton.edu/catalog/9p290j43s#readonly_collections_tesim","type":"document_value","attributes":{"value":"PUDL0130 and Treasures of the Graphic Arts Collection","label":"Collections"}}},"links":{"self":"https://dpul.princeton.edu/catalog/9p290j43s"}},{"id":"8de0cb844fe08145b2430acfc972d13e","type":null,"attributes":{"readonly_collections_ssim":{"id":"https://dpul.princeton.edu/catalog/6108vk36r#readonly_collections_ssim","type":"document_value","attributes":{"value":"\u003cul\u003e\u003cli dir=\"ltr\"\u003ePUDL0130\u003c/li\u003e\u003cli dir=\"ltr\"\u003eTreasures of the Graphic Arts Collection\u003c/li\u003e\u003c/ul\u003e","label":"Collections"}},"readonly_creator_ssim":{"id":"https://dpul.princeton.edu/catalog/6108vk36r#readonly_creator_ssim","type":"document_value","attributes":{"value":"Rowlandson, Thomas, 1756-1827","label":"Creator"}},"readonly_title_ssim":{"id":"https://dpul.princeton.edu/catalog/6108vk36r#readonly_title_ssim","type":"document_value","attributes":{"value":"A catamaran or an old maid's nursery","label":"Title"}},"readonly_publisher_ssim":{"id":"https://dpul.princeton.edu/catalog/6108vk36r#readonly_publisher_ssim","type":"document_value","attributes":{"value":"[London] : [s.n.], 1811/03/01 (changed from 1803).","label":"Publisher"}},"readonly_format_ssim":{"id":"https://dpul.princeton.edu/catalog/6108vk36r#readonly_format_ssim","type":"document_value","attributes":{"value":"Visual material","label":"Format"}},"readonly_collections_tesim":{"id":"https://dpul.princeton.edu/catalog/6108vk36r#readonly_collections_tesim","type":"document_value","attributes":{"value":"PUDL0130 and Treasures of the Graphic Arts Collection","label":"Collections"}}},"links":{"self":"https://dpul.princeton.edu/catalog/6108vk36r"}}],"included":[{"type":"facet","id":"readonly_collections_ssim","attributes":{"label":"Collections","items":[{"attributes":{"label":"The Sid Lapidus '59 Collection on Liberty and the American Revolution","value":"The Sid Lapidus '59 Collection on Liberty and the American Revolution","hits":127},"links":{"self":"https://dpul.princeton.edu/catalog.json?f%5Breadonly_collections_ssim%5D%5B%5D=The+Sid+Lapidus+%2759+Collection+on+Liberty+and+the+American+Revolution\u0026q=cats\u0026search_field=all_fields"}},{"attributes":{"label":"Lapidus Pamphlets","value":"Lapidus Pamphlets","hits":93},"links":{"self":"https://dpul.princeton.edu/catalog.json?f%5Breadonly_collections_ssim%5D%5B%5D=Lapidus+Pamphlets\u0026q=cats\u0026search_field=all_fields"}},{"attributes":{"label":"Treasures of the Graphic Arts Collection","value":"Treasures of the Graphic Arts Collection","hits":21},"links":{"self":"https://dpul.princeton.edu/catalog.json?f%5Breadonly_collections_ssim%5D%5B%5D=Treasures+of+the+Graphic+Arts+Collection\u0026q=cats\u0026search_field=all_fields"}},{"attributes":{"label":"PUDL0130","value":"PUDL0130","hits":13},"links":{"self":"https://dpul.princeton.edu/catalog.json?f%5Breadonly_collections_ssim%5D%5B%5D=PUDL0130\u0026q=cats\u0026search_field=all_fields"}},{"attributes":{"label":"Treasures of the Cotsen Collection","value":"Treasures of the Cotsen Collection","hits":5},"links":{"self":"https://dpul.princeton.edu/catalog.json?f%5Breadonly_collections_ssim%5D%5B%5D=Treasures+of+the+Cotsen+Collection\u0026q=cats\u0026search_field=all_fields"}},{"attributes":{"label":"Dissidents and Activists in Sri Lanka, 1960s to 1990","value":"Dissidents and Activists in Sri Lanka, 1960s to 1990","hits":3},"links":{"self":"https://dpul.princeton.edu/catalog.json?f%5Breadonly_collections_ssim%5D%5B%5D=Dissidents+and+Activists+in+Sri+Lanka%2C+1960s+to+1990\u0026q=cats\u0026search_field=all_fields"}},{"attributes":{"label":"South Asian Ephemera","value":"South Asian Ephemera","hits":3},"links":{"self":"https://dpul.princeton.edu/catalog.json?f%5Breadonly_collections_ssim%5D%5B%5D=South+Asian+Ephemera\u0026q=cats\u0026search_field=all_fields"}},{"attributes":{"label":"African American Studies","value":"African American Studies","hits":2},"links":{"self":"https://dpul.princeton.edu/catalog.json?f%5Breadonly_collections_ssim%5D%5B%5D=African+American+Studies\u0026q=cats\u0026search_field=all_fields"}},{"attributes":{"label":"Political Cartoon Collection MC180","value":"Political Cartoon Collection MC180","hits":2},"links":{"self":"https://dpul.princeton.edu/catalog.json?f%5Breadonly_collections_ssim%5D%5B%5D=Political+Cartoon+Collection+MC180\u0026q=cats\u0026search_field=all_fields"}},{"attributes":{"label":"Princeton Slavic Collections","value":"Princeton Slavic Collections","hits":2},"links":{"self":"https://dpul.princeton.edu/catalog.json?f%5Breadonly_collections_ssim%5D%5B%5D=Princeton+Slavic+Collections\u0026q=cats\u0026search_field=all_fields"}},{"attributes":{"label":"Soviet Era Books for Children and Youth","value":"Soviet Era Books for Children and Youth","hits":2},"links":{"self":"https://dpul.princeton.edu/catalog.json?f%5Breadonly_collections_ssim%5D%5B%5D=Soviet+Era+Books+for+Children+and+Youth\u0026q=cats\u0026search_field=all_fields"}}]},"links":{"self":"/catalog/facet/readonly_collections_ssim"}},{"type":"facet","id":"readonly_language_ssim","attributes":{"label":"Language","items":[{"attributes":{"label":"English","value":"English","hits":106},"links":{"self":"https://dpul.princeton.edu/catalog.json?f%5Breadonly_language_ssim%5D%5B%5D=English\u0026q=cats\u0026search_field=all_fields"}},{"attributes":{"label":"French","value":"French","hits":21},"links":{"self":"https://dpul.princeton.edu/catalog.json?f%5Breadonly_language_ssim%5D%5B%5D=French\u0026q=cats\u0026search_field=all_fields"}},{"attributes":{"label":"No linguistic content; Not applicable","value":"No linguistic content; Not applicable","hits":16},"links":{"self":"https://dpul.princeton.edu/catalog.json?f%5Breadonly_language_ssim%5D%5B%5D=No+linguistic+content%3B+Not+applicable\u0026q=cats\u0026search_field=all_fields"}},{"attributes":{"label":"Latin","value":"Latin","hits":2},"links":{"self":"https://dpul.princeton.edu/catalog.json?f%5Breadonly_language_ssim%5D%5B%5D=Latin\u0026q=cats\u0026search_field=all_fields"}},{"attributes":{"label":"Russian","value":"Russian","hits":2},"links":{"self":"https://dpul.princeton.edu/catalog.json?f%5Breadonly_language_ssim%5D%5B%5D=Russian\u0026q=cats\u0026search_field=all_fields"}},{"attributes":{"label":"Spanish; Castilian","value":"Spanish; Castilian","hits":2},"links":{"self":"https://dpul.princeton.edu/catalog.json?f%5Breadonly_language_ssim%5D%5B%5D=Spanish%3B+Castilian\u0026q=cats\u0026search_field=all_fields"}},{"attributes":{"label":"Japanese","value":"Japanese","hits":1},"links":{"self":"https://dpul.princeton.edu/catalog.json?f%5Breadonly_language_ssim%5D%5B%5D=Japanese\u0026q=cats\u0026search_field=all_fields"}},{"attributes":{"label":"Undetermined","value":"Undetermined","hits":1},"links":{"self":"https://dpul.princeton.edu/catalog.json?f%5Breadonly_language_ssim%5D%5B%5D=Undetermined\u0026q=cats\u0026search_field=all_fields"}}]},"links":{"self":"/catalog/facet/readonly_language_ssim"}},{"type":"facet","id":"readonly_subject_ssim","attributes":{"label":"Subject","items":[{"attributes":{"label":"Caricature","value":"Caricature","hits":15},"links":{"self":"https://dpul.princeton.edu/catalog.json?f%5Breadonly_subject_ssim%5D%5B%5D=Caricature\u0026q=cats\u0026search_field=all_fields"}},{"attributes":{"label":"Pets—Great Britain—Caricatures and cartoons","value":"Pets—Great Britain—Caricatures and cartoons","hits":12},"links":{"self":"https://dpul.princeton.edu/catalog.json?f%5Breadonly_subject_ssim%5D%5B%5D=Pets%E2%80%94Great+Britain%E2%80%94Caricatures+and+cartoons\u0026q=cats\u0026search_field=all_fields"}},{"attributes":{"label":"Cats—Great Britain—Caricatures and cartoons","value":"Cats—Great Britain—Caricatures and cartoons","hits":11},"links":{"self":"https://dpul.princeton.edu/catalog.json?f%5Breadonly_subject_ssim%5D%5B%5D=Cats%E2%80%94Great+Britain%E2%80%94Caricatures+and+cartoons\u0026q=cats\u0026search_field=all_fields"}},{"attributes":{"label":"Animals—Great Britain—Caricatures and cartoons","value":"Animals—Great Britain—Caricatures and cartoons","hits":10},"links":{"self":"https://dpul.princeton.edu/catalog.json?f%5Breadonly_subject_ssim%5D%5B%5D=Animals%E2%80%94Great+Britain%E2%80%94Caricatures+and+cartoons\u0026q=cats\u0026search_field=all_fields"}},{"attributes":{"label":"Political science","value":"Political science","hits":7},"links":{"self":"https://dpul.princeton.edu/catalog.json?f%5Breadonly_subject_ssim%5D%5B%5D=Political+science\u0026q=cats\u0026search_field=all_fields"}},{"attributes":{"label":"Slave trade","value":"Slave trade","hits":7},"links":{"self":"https://dpul.princeton.edu/catalog.json?f%5Breadonly_subject_ssim%5D%5B%5D=Slave+trade\u0026q=cats\u0026search_field=all_fields"}},{"attributes":{"label":"City and town life—Great Britain—Caricatures and cartoons","value":"City and town life—Great Britain—Caricatures and cartoons","hits":4},"links":{"self":"https://dpul.princeton.edu/catalog.json?f%5Breadonly_subject_ssim%5D%5B%5D=City+and+town+life%E2%80%94Great+Britain%E2%80%94Caricatures+and+cartoons\u0026q=cats\u0026search_field=all_fields"}},{"attributes":{"label":"Dogs—Great Britain—Caricatures and cartoons","value":"Dogs—Great Britain—Caricatures and cartoons","hits":4},"links":{"self":"https://dpul.princeton.edu/catalog.json?f%5Breadonly_subject_ssim%5D%5B%5D=Dogs%E2%80%94Great+Britain%E2%80%94Caricatures+and+cartoons\u0026q=cats\u0026search_field=all_fields"}},{"attributes":{"label":"Women pet owners—Great Britain—19th century—Caricatures and cartoons","value":"Women pet owners—Great Britain—19th century—Caricatures and cartoons","hits":4},"links":{"self":"https://dpul.princeton.edu/catalog.json?f%5Breadonly_subject_ssim%5D%5B%5D=Women+pet+owners%E2%80%94Great+Britain%E2%80%9419th+century%E2%80%94Caricatures+and+cartoons\u0026q=cats\u0026search_field=all_fields"}},{"attributes":{"label":"Anthropomorphism in art","value":"Anthropomorphism in art","hits":3},"links":{"self":"https://dpul.princeton.edu/catalog.json?f%5Breadonly_subject_ssim%5D%5B%5D=Anthropomorphism+in+art\u0026q=cats\u0026search_field=all_fields"}},{"attributes":{"label":"Family—Great Britain—19th century—Caricatures and cartoons","value":"Family—Great Britain—19th century—Caricatures and cartoons","hits":3},"links":{"self":"https://dpul.princeton.edu/catalog.json?f%5Breadonly_subject_ssim%5D%5B%5D=Family%E2%80%94Great+Britain%E2%80%9419th+century%E2%80%94Caricatures+and+cartoons\u0026q=cats\u0026search_field=all_fields"}}]},"links":{"self":"/catalog/facet/readonly_subject_ssim"}},{"type":"search_field","id":"all_fields","attributes":{"label":"Keyword"},"links":{"self":"https://dpul.princeton.edu/catalog.json?q=cats\u0026search_field=all_fields\u0026utf8=%E2%9C%93"}},{"type":"search_field","id":"title","attributes":{"label":"Title"},"links":{"self":"https://dpul.princeton.edu/catalog.json?q=cats\u0026search_field=title\u0026utf8=%E2%9C%93"}},{"type":"search_field","id":"publisher","attributes":{"label":"Publisher"},"links":{"self":"https://dpul.princeton.edu/catalog.json?q=cats\u0026search_field=publisher\u0026utf8=%E2%9C%93"}},{"type":"search_field","id":"subject","attributes":{"label":"Subject"},"links":{"self":"https://dpul.princeton.edu/catalog.json?q=cats\u0026search_field=subject\u0026utf8=%E2%9C%93"}},{"type":"sort","id":"relevance","attributes":{"label":"Relevance"},"links":{"self":"https://dpul.princeton.edu/catalog.json?q=cats\u0026search_field=all_fields\u0026sort=relevance\u0026utf8=%E2%9C%93"}},{"type":"sort","id":"sort_title","attributes":{"label":"Title"},"links":{"self":"https://dpul.princeton.edu/catalog.json?q=cats\u0026search_field=all_fields\u0026sort=sort_title\u0026utf8=%E2%9C%93"}},{"type":"sort","id":"sort_date_desc","attributes":{"label":"Date Descending"},"links":{"self":"https://dpul.princeton.edu/catalog.json?q=cats\u0026search_field=all_fields\u0026sort=sort_date_desc\u0026utf8=%E2%9C%93"}},{"type":"sort","id":"sort_date_asc","attributes":{"label":"Date Ascending"},"links":{"self":"https://dpul.princeton.edu/catalog.json?q=cats\u0026search_field=all_fields\u0026sort=sort_date_asc\u0026utf8=%E2%9C%93"}},{"type":"sort","id":"sort_author","attributes":{"label":"Author"},"links":{"self":"https://dpul.princeton.edu/catalog.json?q=cats\u0026search_field=all_fields\u0026sort=sort_author\u0026utf8=%E2%9C%93"}}]}